vcd/framesiladata.vcd
$date
        2026-Mar-07 12:31:27
$end
$version
        Vivado v2020.2 (64-bit)
$end
$timescale
        1ps
$end
$scope module dut $end
$var reg 1 " dbg_scl $end
$var reg 1 # dbg_sda $end
$var reg 1 $ global_rstn $end
$var reg 1 % dbg_xclk $end
$var reg 1 & dbg_pclk $end
$var reg 1 ' dbg_vsync $end
$var reg 1 ( dbg_hsync $end
$var reg 8 ) p_0_in [7:0] $end
$var reg 4 1 rstate [3:0] $end
$var reg 1 5 _TRIGGER $end
$var reg 1 6 _WINDOW $end
$var reg 1 7 _GAP $end
$upscope $end
$enddefinitions $end
#0
$dumpvars
0"
0#
1$
0%
1&
0'
0(
b0 )
b110 1
05
16
07
$end
#1000
1'
15
#10408
0'
#70636
1(
b10100110 )
#70638
0&
b11010 )
#70639
1&
#70640
0&
b10011101 )
#70641
1&
#70642
0&
b11111001 )
#70643
1&
#70644
0&
b10001101 )
#70645
1&
#70646
0&
b10011000 )
#70647
1&
#70648
0&
b10000100 )
#70649
1&
#70650
0&
b11010111 )
#70651
1&
#70652
0&
b1111100 )
#70653
1&
#70654
0&
b1110110 )
#70655
1&
#70656
0&
b1110100 )
#70657
1&
#70658
0&
b1110010 )
#70659
1&
#70660
0&
b1101100 )
#70661
1&
#70662
0&
b110001 )
#70663
1&
#70664
0&
b1011100 )
#70665
1&
#70666
0&
b10000 )
#70667
1&
#70668
0&
b1001011 )
#70669
1&
#70670
0&
b11001111 )
#70671
1&
#70672
0&
b1001011 )
#70673
1&
#70674
0&
b1010000 )
#70675
1&
#70676
0&
b1001011 )
#70677
1&
#70678
0&
b1001111 )
#70679
1&
#70680
0&
b1000011 )
#70681
1&
#70682
0&
b10000 )
#70683
1&
#70684
0&
b1000010 )
#70685
1&
#70686
0&
b11110000 )
#70687
1&
#70688
0&
b1000010 )
#70689
1&
#70690
0&
b11110001 )
#70691
1&
#70692
0&
b1000010 )
#70693
1&
#70694
0&
b11110001 )
#70695
1&
#70696
0&
b1000011 )
#70697
1&
#70698
0&
b10010 )
#70699
1&
#70700
0&
b1000011 )
#70701
1&
#70702
0&
b10010 )
#70703
1&
#70704
0&
b1001011 )
#70705
1&
#70706
0&
b10010 )
#70707
1&
#70708
0&
b1001011 )
#70709
1&
#70710
0&
b1010011 )
#70711
1&
#70712
0&
b1011011 )
#70713
1&
#70714
0&
b1110101 )
#70715
1&
#70716
0&
b1011011 )
#70717
1&
#70718
0&
b10010110 )
#70719
1&
#70720
0&
b10010011 )
#70721
1&
#70722
0&
b10111011 )
#70723
1&
#70724
0&
b10011011 )
#70725
1&
#70726
0&
b11111100 )
#70727
1&
#70728
0&
b10010101 )
#70729
1&
#70730
0&
b111111 )
#70731
1&
#70732
0&
b10011101 )
#70733
1&
#70734
0&
b1011111 )
#70735
1&
#70736
0&
b10010101 )
#70737
1&
#70738
0&
b10111111 )
#70739
1&
#70740
0&
b10011101 )
#70741
1&
#70742
0&
b11011111 )
#70743
1&
#70744
0&
b10011101 )
#70745
1&
#70746
0&
b10111111 )
#70747
1&
#70748
0&
b10011101 )
#70749
1&
#70750
0&
b10111111 )
#70751
1&
#70752
0&
b10100101 )
#70753
1&
#70754
0&
b1111111 )
#70755
1&
#70756
0&
b10100101 )
#70757
1&
#70758
0&
b10011111 )
#70759
1&
#70760
0&
b10100101 )
#70761
1&
#70762
0&
b111111 )
#70763
1&
#70764
0&
b10101101 )
#70765
1&
#70766
0&
b111111 )
#70767
1&
#70768
0&
b10101101 )
#70769
1&
#70770
0&
b111101 )
#70771
1&
#70772
0&
b10110101 )
#70773
1&
#70774
0&
b1111110 )
#70775
1&
#70776
0&
b10101101 )
#70777
1&
#70778
0&
b11011011 )
#70779
1&
#70780
0&
b10101101 )
#70781
1&
#70782
0&
b11111100 )
#70783
1&
#70784
0&
b10100101 )
#70785
1&
#70786
0&
b1111010 )
#70787
1&
#70788
0&
b10001100 )
#70789
1&
#70790
0&
b11010111 )
#70791
1&
#70792
0&
b1111100 )
#70793
1&
#70794
0&
b10101 )
#70795
1&
#70796
0&
b1111100 )
#70797
1&
#70798
0&
b10101 )
#70799
1&
#70800
0&
b1100101 )
#70801
1&
#70802
0&
b1010100 )
#70803
1&
#70804
0&
b10001110 )
#70805
1&
#70806
0&
b10111001 )
#70807
1&
#70808
0&
b10011111 )
#70809
1&
#70810
0&
b11110111 )
#70811
1&
#70812
0&
b10001111 )
#70813
1&
#70814
0&
b10110101 )
#70815
1&
#70816
0&
b10010101 )
#70817
1&
#70818
0&
b11011110 )
#70819
1&
#70820
0&
b10001101 )
#70821
1&
#70822
0&
b10011100 )
#70823
1&
#70824
0&
b10000101 )
#70825
1&
#70826
0&
b10111000 )
#70827
1&
#70828
0&
b10000101 )
#70829
1&
#70830
0&
b10010111 )
#70831
1&
#70832
0&
b10000101 )
#70833
1&
#70834
0&
b10011000 )
#70835
1&
#70836
0&
b1111101 )
#70837
1&
#70838
0&
b1011000 )
#70839
1&
#70840
0&
b10000100 )
#70841
1&
#70842
0&
b11110111 )
#70843
1&
#70844
0&
b10010101 )
#70845
1&
#70846
0&
b1011001 )
#70847
1&
#70848
0&
b10101101 )
#70849
1&
#70850
0&
b11111000 )
#70851
1&
#70852
0&
b10111110 )
#70853
1&
#70854
0&
b1111010 )
#70855
1&
#70856
0&
b10111110 )
#70857
1&
#70858
0&
b1011011 )
#70859
1&
#70860
0&
b10110110 )
#70861
1&
#70862
0&
b11010 )
#70863
1&
#70864
0&
b10110101 )
#70865
1&
#70866
0&
b11011000 )
#70867
1&
#70868
0&
b10101101 )
#70869
1&
#70870
0&
b10111000 )
#70871
1&
#70872
0&
b10100101 )
#70873
1&
#70874
0&
b11010110 )
#70875
1&
#70876
0&
b10101101 )
#70877
1&
#70878
0&
b11010110 )
#70879
1&
#70880
0&
b10101101 )
#70881
1&
#70882
0&
b10110110 )
#70883
1&
#70884
0&
b10101101 )
#70885
1&
#70886
0&
b10110110 )
#70887
1&
#70888
0&
b10100101 )
#70889
1&
#70890
0&
b10110110 )
#70891
1&
#70892
0&
b10100101 )
#70893
1&
#70894
0&
b10110110 )
#70895
1&
#70896
0&
b10100101 )
#70897
1&
#70898
0&
b10110101 )
#70899
1&
#70900
0&
b10100101 )
#70901
1&
#70902
0&
b10110101 )
#70903
1&
#70904
0&
b10100101 )
#70905
1&
#70906
0&
b11110101 )
#70907
1&
#70908
0&
b10100101 )
#70909
1&
#70910
0&
b11110101 )
#70911
1&
#70912
0&
b10100101 )
#70913
1&
#70914
0&
b10110101 )
#70915
1&
#70916
0&
b10100101 )
#70917
1&
#70918
0&
b10110100 )
#70919
1&
#70920
0&
b10100101 )
#70921
1&
#70922
0&
b10110011 )
#70923
1&
#70924
0&
b10100101 )
#70925
1&
#70926
0&
b10110011 )
#70927
1&
#70928
0&
b10100101 )
#70929
1&
#70930
0&
b10010011 )
#70931
1&
#70932
0&
b10011101 )
#70933
1&
#70934
0&
b10010011 )
#70935
1&
#70936
0&
b10011101 )
#70937
1&
#70938
0&
b10010011 )
#70939
1&
#70940
0&
b10010101 )
#70941
1&
#70942
0&
b1110011 )
#70943
1&
#70944
0&
b10010101 )
#70945
1&
#70946
0&
b1010011 )
#70947
1&
#70948
0&
b10001101 )
#70949
1&
#70950
0&
b10010 )
#70951
1&
#70952
0&
b10001100 )
#70953
1&
#70954
0&
b11010011 )
#70955
1&
#70956
0&
b10010100 )
#70957
1&
#70958
0&
b11110100 )
#70959
1&
#70960
0&
b10010101 )
#70961
1&
#70962
0&
b110010 )
#70963
1&
#70964
0&
b10011111 )
#70965
1&
b10011101 )
#70966
0&
b1110011 )
#70967
1&
#70968
0&
b10011101 )
#70969
1&
#70970
0&
b1110011 )
#70971
1&
#70972
0&
b10011101 )
#70973
1&
#70974
0&
b1110011 )
#70975
1&
#70976
0&
b10011101 )
#70977
1&
#70978
0&
b1010100 )
#70979
1&
#70980
0&
b10011101 )
#70981
1&
#70982
0&
b1010100 )
#70983
1&
#70984
0&
b10001101 )
#70985
1&
#70986
0&
b1110011 )
#70987
1&
#70988
0&
b10001101 )
#70989
1&
#70990
0&
b1010011 )
#70991
1&
#70992
0&
b10000100 )
#70993
1&
#70994
0&
b10110010 )
#70995
1&
#70996
0&
b1110100 )
#70997
1&
#70998
0&
b110000 )
#70999
1&
#71000
0&
b1100011 )
#71001
1&
#71002
0&
b11101101 )
#71003
1&
#71004
0&
b1100011 )
#71005
1&
#71006
0&
b11101101 )
#71007
1&
#71008
0&
b1100011 )
#71009
1&
#71010
0&
b10101100 )
#71011
1&
#71012
0&
b1011011 )
#71013
1&
#71014
0&
b1101011 )
#71015
1&
#71016
0&
b1011011 )
#71017
1&
#71018
0&
b1001011 )
#71019
1&
#71020
0&
b1011011 )
#71021
1&
#71022
0&
b101011 )
#71023
1&
#71024
0&
b1001011 )
#71025
1&
#71026
0&
b1101011 )
#71027
1&
#71028
0&
b1001011 )
#71029
1&
#71030
0&
b1101011 )
#71031
1&
#71032
0&
b1000010 )
#71033
1&
#71034
0&
b11101011 )
#71035
1&
#71036
0&
b111010 )
#71037
1&
#71038
0&
b10101010 )
#71039
1&
#71040
0&
b1000010 )
#71041
1&
#71042
0&
b10001001 )
#71043
1&
#71044
0&
b1000010 )
#71045
1&
#71046
0&
b10001001 )
#71047
1&
#71048
0&
b111010 )
#71049
1&
#71050
0&
b11001001 )
#71051
1&
#71052
0&
b111010 )
#71053
1&
#71054
0&
b11001010 )
#71055
1&
#71056
0&
b1000010 )
#71057
1&
#71058
0&
b11001010 )
#71059
1&
#71060
0&
b1000010 )
#71061
1&
#71062
0&
b10101010 )
#71063
1&
#71064
0&
b1000010 )
#71065
1&
#71066
0&
b10001011 )
#71067
1&
#71068
0&
b1000010 )
#71069
1&
#71070
0&
b10001011 )
#71071
1&
#71072
0&
b1000010 )
#71073
1&
#71074
0&
b10101011 )
#71075
1&
#71076
0&
b1000010 )
#71077
1&
#71078
0&
b10101011 )
#71079
1&
#71080
0&
b1000010 )
#71081
1&
#71082
0&
b10101011 )
#71083
1&
#71084
0&
b1000010 )
#71085
1&
#71086
0&
b11001011 )
#71087
1&
#71088
0&
b1000010 )
#71089
1&
#71090
0&
b11001011 )
#71091
1&
#71092
0&
b1000010 )
#71093
1&
#71094
0&
b11001011 )
#71095
1&
#71096
0&
b1000010 )
#71097
1&
#71098
0&
b10001011 )
#71099
1&
#71100
0&
b1000010 )
#71101
1&
#71102
0&
b10001011 )
#71103
1&
#71104
0&
b111010 )
#71105
1&
#71106
0&
b11001010 )
#71107
1&
#71108
0&
b111010 )
#71109
1&
#71110
0&
b11001010 )
#71111
1&
#71112
0&
b111010 )
#71113
1&
#71114
0&
b10101011 )
#71115
1&
#71116
0&
b111010 )
#71117
1&
#71118
0&
b10001011 )
#71119
1&
#71120
0&
b111010 )
#71121
1&
#71122
0&
b10001011 )
#71123
1&
#71124
0&
b111010 )
#71125
1&
#71126
0&
b10001011 )
#71127
1&
#71128
0&
b111010 )
#71129
1&
#71130
0&
b10101010 )
#71131
1&
#71132
0&
b111010 )
#71133
1&
#71134
0&
b10101010 )
#71135
1&
#71136
0&
b1000010 )
#71137
1&
#71138
0&
b10101010 )
#71139
1&
#71140
0&
b1000010 )
#71141
1&
#71142
0&
b10101010 )
#71143
1&
#71144
0&
b1000010 )
#71145
1&
#71146
0&
b10001011 )
#71147
1&
#71148
0&
b1000010 )
#71149
1&
#71150
0&
b10001011 )
#71151
1&
#71152
0&
b111010 )
#71153
1&
#71154
0&
b10101100 )
#71155
1&
#71156
0&
b111010 )
#71157
1&
#71158
0&
b10101100 )
#71159
1&
#71160
0&
b1000010 )
#71161
1&
#71162
0&
b10101011 )
#71163
1&
#71164
0&
b1000010 )
#71165
1&
#71166
0&
b10101011 )
#71167
1&
#71168
0&
b1000010 )
#71169
1&
#71170
0&
b11001011 )
#71171
1&
#71172
0&
b1001010 )
#71173
1&
#71174
0&
b11101100 )
#71175
1&
#71176
0&
b1000010 )
#71177
1&
#71178
0&
b11101011 )
#71179
1&
#71180
0&
b1000010 )
#71181
1&
#71182
0&
b11101011 )
#71183
1&
#71184
0&
b1000010 )
#71185
1&
#71186
0&
b11001011 )
#71187
1&
#71188
0&
b1000010 )
#71189
1&
#71190
0&
b11001011 )
#71191
1&
#71192
0&
b1000010 )
#71193
1&
#71194
0&
b10101010 )
#71195
1&
#71196
0&
b1000010 )
#71197
1&
#71198
0&
b10101010 )
#71199
1&
#71200
0&
b111010 )
#71201
1&
#71202
0&
b11001011 )
#71203
1&
#71204
0&
b111010 )
#71205
1&
#71206
0&
b11001011 )
#71207
1&
#71208
0&
b1000010 )
#71209
1&
#71210
0&
b10101010 )
#71211
1&
#71212
0&
b1000010 )
#71213
1&
#71214
0&
b10001010 )
#71215
1&
#71216
0&
b1000010 )
#71217
1&
#71218
0&
b10001011 )
#71219
1&
#71220
0&
b1000010 )
#71221
1&
#71222
0&
b10001011 )
#71223
1&
#71224
0&
b1000010 )
#71225
1&
#71226
0&
b10001011 )
#71227
1&
#71228
0&
b1000010 )
#71229
1&
#71230
0&
b10001011 )
#71231
1&
#71232
0&
b1000010 )
#71233
1&
#71234
0&
b10001001 )
#71235
1&
#71236
0&
b1000010 )
#71237
1&
#71238
0&
b10101001 )
#71239
1&
#71240
0&
b1000010 )
#71241
1&
#71242
0&
b10101010 )
#71243
1&
#71244
0&
b1000010 )
#71245
1&
#71246
0&
b11001010 )
#71247
1&
#71248
0&
b1000011 )
#71249
1&
#71250
0&
b1100 )
#71251
1&
#71252
0&
b1001011 )
#71253
1&
#71254
0&
b1001101 )
#71255
1&
#71256
0&
b1001011 )
#71257
1&
#71258
0&
b1101110 )
#71259
1&
#71260
0&
b1001011 )
#71261
1&
#71262
0&
b1001101 )
#71263
1&
#71264
0&
b1001011 )
#71265
1&
#71266
0&
b101110 )
#71267
1&
#71268
0&
b1001011 )
#71269
1&
#71270
0&
b101110 )
#71271
1&
#71272
0&
b1001011 )
#71273
1&
#71274
0&
b101101 )
#71275
1&
#71276
0&
b1001011 )
#71277
1&
#71278
0&
b101101 )
#71279
1&
#71280
0&
b1001011 )
#71281
1&
#71282
0&
b1001101 )
#71283
1&
#71284
0&
b1001011 )
#71285
1&
#71286
0&
b1101110 )
#71287
1&
#71288
0&
b1010011 )
#71289
1&
#71290
0&
b1101110 )
#71291
1&
#71292
0&
b1010011 )
#71293
1&
#71294
0&
b1101110 )
#71295
1&
#71296
0&
b1010011 )
#71297
1&
#71298
0&
b1001111 )
#71299
1&
#71300
0&
b1010011 )
#71301
1&
#71302
0&
b1001111 )
#71303
1&
#71304
0&
b1001011 )
#71305
1&
#71306
0&
b1101110 )
#71307
1&
#71308
0&
b1001011 )
#71309
1&
#71310
0&
b1101110 )
#71311
1&
#71312
0&
b1001011 )
#71313
1&
#71314
0&
b1101110 )
#71315
1&
#71316
0&
b1001011 )
#71317
1&
#71318
0&
b10001110 )
#71319
1&
#71320
0&
b1001011 )
#71321
1&
#71322
0&
b10001101 )
#71323
1&
#71324
0&
b1001011 )
#71325
1&
#71326
0&
b10001101 )
#71327
1&
#71328
0&
b1001011 )
#71329
1&
#71330
0&
b1101110 )
#71331
1&
#71332
0&
b1001011 )
#71333
1&
#71334
0&
b1101110 )
#71335
1&
#71336
0&
b1001011 )
#71337
1&
#71338
0&
b1101110 )
#71339
1&
#71340
0&
b1001011 )
#71341
1&
#71342
0&
b1001110 )
#71343
1&
#71344
0&
b1001011 )
#71345
1&
#71346
0&
b1101110 )
#71347
1&
#71348
0&
b1001011 )
#71349
1&
#71350
0&
b1101110 )
#71351
1&
#71352
0&
b1001011 )
#71353
1&
#71354
0&
b10001101 )
#71355
1&
#71356
0&
b1001011 )
#71357
1&
#71358
0&
b10001101 )
#71359
1&
#71360
0&
b1010011 )
#71361
1&
#71362
0&
b1101101 )
#71363
1&
#71364
0&
b1001011 )
#71365
1&
#71366
0&
b1101101 )
#71367
1&
#71368
0&
b1010011 )
#71369
1&
#71370
0&
b1001110 )
#71371
1&
#71372
0&
b1010011 )
#71373
1&
#71374
0&
b101111 )
#71375
1&
b101101 )
#71376
0&
b1001011 )
#71377
1&
#71378
0&
b1001110 )
#71379
1&
#71380
0&
b1001011 )
#71381
1&
#71382
0&
b1001110 )
#71383
1&
#71384
0&
b1001011 )
#71385
1&
#71386
0&
b1001110 )
#71387
1&
#71388
0&
b1001011 )
#71389
1&
#71390
0&
b1001110 )
#71391
1&
#71392
0&
b1001011 )
#71393
1&
#71394
0&
b1101110 )
#71395
1&
#71396
0&
b1001011 )
#71397
1&
#71398
0&
b1001110 )
#71399
1&
#71400
0&
b1001011 )
#71401
1&
#71402
0&
b1001110 )
#71403
1&
#71404
0&
b1001011 )
#71405
1&
#71406
0&
b1101110 )
#71407
1&
#71408
0&
b1010011 )
#71409
1&
#71410
0&
b1101110 )
#71411
1&
#71412
0&
b1010011 )
#71413
1&
#71414
0&
b1101110 )
#71415
1&
#71416
0&
b1010011 )
#71417
1&
#71418
0&
b1101110 )
#71419
1&
#71420
0&
b1001011 )
#71421
1&
#71422
0&
b1101101 )
#71423
1&
#71424
0&
b1001011 )
#71425
1&
#71426
0&
b1101110 )
#71427
1&
#71428
0&
b1001011 )
#71429
1&
#71430
0&
b1101110 )
#71431
1&
#71432
0&
b1010011 )
#71433
1&
#71434
0&
b101110 )
#71435
1&
#71436
0&
b1010011 )
#71437
1&
#71438
0&
b101110 )
#71439
1&
#71440
0&
b1010011 )
#71441
1&
#71442
0&
b1001110 )
#71443
1&
#71444
0&
b1010011 )
#71445
1&
#71446
0&
b1101110 )
#71447
1&
#71448
0&
b1010011 )
#71449
1&
#71450
0&
b1101110 )
#71451
1&
#71452
0&
b1010011 )
#71453
1&
#71454
0&
b1101110 )
#71455
1&
#71456
0&
b1010011 )
#71457
1&
#71458
0&
b1001111 )
#71459
1&
#71460
0&
b1010011 )
#71461
1&
#71462
0&
b1101111 )
#71463
1&
#71464
0&
b1010011 )
#71465
1&
#71466
0&
b1101110 )
#71467
1&
#71468
0&
b1010011 )
#71469
1&
#71470
0&
b1101110 )
#71471
1&
#71472
0&
b1010011 )
#71473
1&
#71474
0&
b1101110 )
#71475
1&
#71476
0&
b1010011 )
#71477
1&
#71478
0&
b10001111 )
#71479
1&
#71480
0&
b1011011 )
#71481
1&
#71482
0&
b10001111 )
#71483
1&
#71484
0&
b1010011 )
#71485
1&
#71486
0&
b10001111 )
#71487
1&
#71488
0&
b1010011 )
#71489
1&
#71490
0&
b10001111 )
#71491
1&
#71492
0&
b1010011 )
#71493
1&
#71494
0&
b10110000 )
#71495
1&
#71496
0&
b1011011 )
#71497
1&
#71498
0&
b10001111 )
#71499
1&
#71500
0&
b1011011 )
#71501
1&
#71502
0&
b1101111 )
#71503
1&
#71504
0&
b1011011 )
#71505
1&
#71506
0&
b10110000 )
#71507
1&
b10010000 )
#71508
0&
b1011011 )
#71509
1&
#71510
0&
b10110000 )
#71511
1&
#71512
0&
b1011011 )
#71513
1&
#71514
0&
b10101111 )
#71515
1&
#71516
0&
b1011011 )
#71517
1&
#71518
0&
b10101111 )
#71519
1&
#71520
0&
b1011011 )
#71521
1&
#71522
0&
b11001111 )
#71523
1&
#71524
0&
b1011011 )
#71525
1&
#71526
0&
b11001111 )
#71527
1&
#71528
0&
b1011011 )
#71529
1&
#71530
0&
b11010000 )
#71531
1&
#71532
0&
b1011011 )
#71533
1&
#71534
0&
b11010000 )
#71535
1&
#71536
0&
b1011011 )
#71537
1&
#71538
0&
b11110000 )
#71539
1&
#71540
0&
b1011011 )
#71541
1&
#71542
0&
b11110000 )
#71543
1&
#71544
0&
b1011011 )
#71545
1&
#71546
0&
b11110000 )
#71547
1&
#71548
0&
b1011011 )
#71549
1&
#71550
0&
b11110000 )
#71551
1&
#71552
0&
b1100011 )
#71553
1&
#71554
0&
b11110000 )
#71555
1&
#71556
0&
b1100011 )
#71557
1&
#71558
0&
b11110000 )
#71559
1&
#71560
0&
b1011100 )
#71561
1&
#71562
0&
b10000 )
#71563
1&
#71564
0&
b1011100 )
#71565
1&
#71566
0&
b10000 )
#71567
1&
#71568
0&
b1100011 )
#71569
1&
#71570
0&
b11110001 )
#71571
1&
#71572
0&
b1100100 )
#71573
1&
#71574
0&
b10001 )
#71575
1&
#71576
0&
b1100100 )
#71577
1&
#71578
0&
b10001 )
#71579
1&
#71580
0&
b1101100 )
#71581
1&
#71582
0&
b10001 )
#71583
1&
#71584
0&
b1100100 )
#71585
1&
#71586
0&
b110000 )
#71587
1&
#71588
0&
b1100100 )
#71589
1&
#71590
0&
b110001 )
#71591
1&
#71592
0&
b1100100 )
#71593
1&
#71594
0&
b110001 )
#71595
1&
#71596
0&
b1100100 )
#71597
1&
#71598
0&
b1010001 )
#71599
1&
#71600
0&
b1101100 )
#71601
1&
#71602
0&
b110001 )
#71603
1&
#71604
0&
b1101100 )
#71605
1&
#71606
0&
b110001 )
#71607
1&
#71608
0&
b1101100 )
#71609
1&
#71610
0&
b110001 )
#71611
1&
#71612
0&
b1101100 )
#71613
1&
#71614
0&
b110001 )
#71615
1&
#71616
0&
b1101100 )
#71617
1&
#71618
0&
b1010010 )
#71619
1&
#71620
0&
b1101100 )
#71621
1&
#71622
0&
b1010010 )
#71623
1&
#71624
0&
b1101100 )
#71625
1&
#71626
0&
b1010010 )
#71627
1&
#71628
0&
b1101100 )
#71629
1&
#71630
0&
b1010010 )
#71631
1&
#71632
0&
b1101100 )
#71633
1&
#71634
0&
b1010010 )
#71635
1&
#71636
0&
b1101100 )
#71637
1&
#71638
0&
b110010 )
#71639
1&
#71640
0&
b1101100 )
#71641
1&
#71642
0&
b1110001 )
#71643
1&
#71644
0&
b1110100 )
#71645
1&
#71646
0&
b1110001 )
#71647
1&
#71648
0&
b1110100 )
#71649
1&
#71650
0&
b1110001 )
#71651
1&
#71652
0&
b1110100 )
#71653
1&
#71654
0&
b1110001 )
#71655
1&
#71656
0&
b1110100 )
#71657
1&
#71658
0&
b1110010 )
#71659
1&
#71660
0&
b1110100 )
#71661
1&
#71662
0&
b1110010 )
#71663
1&
#71664
0&
b1110100 )
#71665
1&
#71666
0&
b1110011 )
#71667
1&
#71668
0&
b1110100 )
#71669
1&
#71670
0&
b1110011 )
#71671
1&
#71672
0&
b1110100 )
#71673
1&
#71674
0&
b1110011 )
#71675
1&
#71676
0&
b1110100 )
#71677
1&
#71678
0&
b1110011 )
#71679
1&
#71680
0&
b1110100 )
#71681
1&
#71682
0&
b10010011 )
#71683
1&
#71684
0&
b1110100 )
#71685
1&
#71686
0&
b10010011 )
#71687
1&
#71688
0&
b1111100 )
#71689
1&
#71690
0&
b10010010 )
#71691
1&
#71692
0&
b1111100 )
#71693
1&
#71694
0&
b10010010 )
#71695
1&
#71696
0&
b1111100 )
#71697
1&
#71698
0&
b10010010 )
#71699
1&
#71700
0&
b1111100 )
#71701
1&
#71702
0&
b10010010 )
#71703
1&
#71704
0&
b1110100 )
#71705
1&
#71706
0&
b10010011 )
#71707
1&
#71708
0&
b1110100 )
#71709
1&
#71710
0&
b10010011 )
#71711
1&
#71712
0&
b1111100 )
#71713
1&
#71714
0&
b10010011 )
#71715
1&
#71716
0&
b1111100 )
#71717
1&
#71718
0&
b10010100 )
#71719
1&
#71720
0&
b1111100 )
#71721
1&
#71722
0&
b10110011 )
#71723
1&
#71724
0&
b1111100 )
#71725
1&
#71726
0&
b10110011 )
#71727
1&
#71728
0&
b1111100 )
#71729
1&
#71730
0&
b10010011 )
#71731
1&
#71732
0&
b1111100 )
#71733
1&
#71734
0&
b10110100 )
#71735
1&
#71736
0&
b1111100 )
#71737
1&
#71738
0&
b10110100 )
#71739
1&
#71740
0&
b1111100 )
#71741
1&
#71742
0&
b10110100 )
#71743
1&
#71744
0&
b1111100 )
#71745
1&
#71746
0&
b11010100 )
#71747
1&
#71748
0&
b1111100 )
#71749
1&
#71750
0&
b10110100 )
#71751
1&
#71752
0&
b1111100 )
#71753
1&
#71754
0&
b10110100 )
#71755
1&
#71756
0&
b1111100 )
#71757
1&
#71758
0&
b10110100 )
#71759
1&
#71760
0&
b10000100 )
#71761
1&
#71762
0&
b10110100 )
#71763
1&
#71764
0&
b10000100 )
#71765
1&
#71766
0&
b11010100 )
#71767
1&
#71768
0&
b1111100 )
#71769
1&
#71770
0&
b11010100 )
#71771
1&
#71772
0&
b1111100 )
#71773
1&
#71774
0&
b11010100 )
#71775
1&
#71776
0&
b1111100 )
#71777
1&
#71778
0&
b11010100 )
#71779
1&
#71780
0&
b1111100 )
#71781
1&
#71782
0&
b11010100 )
#71783
1&
#71784
0&
b10000100 )
#71785
1&
#71786
0&
b10110100 )
#71787
1&
#71788
0&
b10000100 )
#71789
1&
#71790
0&
b10110100 )
#71791
1&
#71792
0&
b10000100 )
#71793
1&
#71794
0&
b11010100 )
#71795
1&
#71796
0&
b10000100 )
#71797
1&
#71798
0&
b11010100 )
#71799
1&
#71800
0&
b10000100 )
#71801
1&
#71802
0&
b11010101 )
#71803
1&
#71804
0&
b10000100 )
#71805
1&
#71806
0&
b11010101 )
#71807
1&
#71808
0&
b10000100 )
#71809
1&
#71810
0&
b11010101 )
#71811
1&
#71812
0&
b10000100 )
#71813
1&
#71814
0&
b11010101 )
#71815
1&
#71816
0&
b10000100 )
#71817
1&
#71818
0&
b11110101 )
#71819
1&
#71820
0&
b10000100 )
#71821
1&
#71822
0&
b11110101 )
#71823
1&
#71824
0&
b10000100 )
#71825
1&
#71826
0&
b11010101 )
#71827
1&
#71828
0&
b10000100 )
#71829
1&
#71830
0&
b11010101 )
#71831
1&
#71832
0&
b10000100 )
#71833
1&
#71834
0&
b11110101 )
#71835
1&
#71836
0&
b10000101 )
#71837
1&
#71838
0&
b10101 )
#71839
1&
#71840
0&
b10000100 )
#71841
1&
#71842
0&
b11110101 )
#71843
1&
#71844
0&
b10000100 )
#71845
1&
#71846
0&
b11110101 )
#71847
1&
#71848
0&
b1111101 )
#71849
1&
#71850
0&
b10101 )
#71851
1&
#71852
0&
b10000101 )
#71853
1&
#71854
0&
b10101 )
#71855
1&
#71856
0&
b10000100 )
#71857
1&
#71858
0&
b11110101 )
#71859
1&
#71860
0&
b10000101 )
#71861
1&
#71862
0&
b10101 )
#71863
1&
#71864
0&
b10000100 )
#71865
1&
#71866
0&
b11110101 )
#71867
1&
#71868
0&
b10000101 )
#71869
1&
#71870
0&
b10101 )
#71871
1&
#71872
0&
b10000101 )
#71873
1&
#71874
0&
b10101 )
#71875
1&
#71876
0&
b10000101 )
#71877
1&
#71878
0&
b110101 )
#71879
1&
#71880
0&
b10000101 )
#71881
1&
#71882
0&
b110110 )
#71883
1&
#71884
0&
b10000101 )
#71885
1&
#71886
0&
b110110 )
#71887
1&
#71888
0&
b10000101 )
#71889
1&
#71890
0&
b10110 )
#71891
1&
#71892
0&
b10000101 )
#71893
1&
#71894
0&
b10110 )
#71895
1&
#71896
0&
b10000101 )
#71897
1&
#71898
0&
b10110 )
#71899
1&
#71900
0&
b10000101 )
#71901
1&
#71902
0&
b110110 )
#71903
1&
#71904
0&
b10001101 )
#71905
1&
#71906
0&
b10101 )
#71907
1&
#71908
0&
b10001101 )
#71909
1&
#71910
0&
b10101 )
#71911
1&
#71912
0&
b10000101 )
#71913
1&
#71914
0&
b10110 )
#71915
1&
#71916
0&
b10000101 )
#71917
1&
#71918
0&
b10110 )
#71919
1&
#71920
0&
b10000101 )
#71921
1&
#71922
0&
b10110 )
#71923
1&
#71924
0&
b10000101 )
#71925
1&
#71926
0&
b110110 )
#71927
1&
#71928
0&
b10000101 )
#71929
1&
#71930
0&
b110110 )
#71931
1&
#71932
0&
b10000101 )
#71933
1&
#71934
0&
b110110 )
#71935
1&
#71936
0&
b10000101 )
#71937
1&
#71938
0&
b110110 )
#71939
1&
#71940
0&
b10000101 )
#71941
1&
#71942
0&
b110110 )
#71943
1&
#71944
0&
b10001101 )
#71945
1&
#71946
0&
b110110 )
#71947
1&
#71948
0&
b10001101 )
#71949
1&
#71950
0&
b110110 )
#71951
1&
#71952
0&
b10000101 )
#71953
1&
#71954
0&
b110110 )
#71955
1&
#71956
0&
b10000101 )
#71957
1&
#71958
0&
b110110 )
#71959
1&
#71960
0&
b10001101 )
#71961
1&
#71962
0&
b110110 )
#71963
1&
#71964
0&
b10001101 )
#71965
1&
#71966
0&
b110110 )
#71967
1&
#71968
0&
b10001101 )
#71969
1&
#71970
0&
b110110 )
#71971
1&
#71972
0&
b10001101 )
#71973
1&
#71974
0&
b110110 )
#71975
1&
#71976
0&
b10001101 )
#71977
1&
#71978
0&
b10111 )
#71979
1&
#71980
0&
b10001101 )
#71981
1&
#71982
0&
b10111 )
#71983
1&
#71984
0&
b10001101 )
#71985
1&
#71986
0&
b110111 )
#71987
1&
#71988
0&
b10001101 )
#71989
1&
#71990
0&
b110111 )
#71991
1&
#71992
0&
b10000101 )
#71993
1&
#71994
0&
b110111 )
#71995
1&
#71996
0&
b10000101 )
#71997
1&
#71998
0&
b1010111 )
#71999
1&
#72000
0&
b10001101 )
#72001
1&
#72002
0&
b1010110 )
#72003
1&
#72004
0&
b10001101 )
#72005
1&
#72006
0&
b1010110 )
#72007
1&
#72008
0&
b10001101 )
#72009
1&
#72010
0&
b1010110 )
#72011
1&
#72012
0&
b10001101 )
#72013
1&
#72014
0&
b110110 )
#72015
1&
#72016
0&
b10010100 )
#72017
1&
#72018
0&
b11110101 )
#72019
1&
#72020
0&
b10001100 )
#72021
1&
#72022
0&
b10010011 )
#72023
1&
#72024
0&
b10011011 )
#72025
1&
#72026
0&
b10010001 )
#72027
1&
#72028
0&
b10001011 )
#72029
1&
#72030
0&
b101111 )
#72031
1&
#72032
0&
b10010010 )
#72033
1&
#72034
0&
b11001100 )
