vcd/iladata_frame_grabber.vcd
$date
        2026-Mar-12 18:33:57
$end
$version
        Vivado v2020.2 (64-bit)
$end
$timescale
        1ps
$end
$scope module dut $end
$var reg 1 " dbg_pclk $end
$var reg 1 # dbg_vsync $end
$var reg 1 $ dbg_hsync $end
$var reg 8 % p_0_in [7:0] $end
$var reg 16 - dbg_pixel_frame [15:0] $end
$var reg 12 = dbg_line_counter [11:0] $end
$var reg 10 I dbg_frame_counter [9:0] $end
$var reg 1 S _TRIGGER $end
$var reg 1 T _WINDOW $end
$var reg 1 U _GAP $end
$upscope $end
$enddefinitions $end
#0
$dumpvars
1"
0#
1$
b11101000 %
b100001111101000 -
b10110011111 =
b110010100 I
0S
1T
0U
$end
#1
0"
b110011 %
#2
1"
b11001111101000 -
b10110100000 =
#3
0"
b11100111 %
#4
1"
b11100110 %
b11001111100110 -
#5
0"
b1000011 %
#6
1"
b100001111100110 -
b10110100001 =
#7
0"
b11101000 %
#8
1"
b100001111101000 -
#9
0"
b110011 %
#10
1"
b11001111101000 -
b10110100010 =
#11
0"
b11100111 %
#12
1"
b11100110 %
b11001111100110 -
#13
0"
b1000011 %
#14
1"
b100001111100110 -
b10110100011 =
#15
0"
b11101000 %
#16
1"
b100001111101000 -
#17
0"
b110011 %
#18
1"
b11001111101000 -
b10110100100 =
#19
0"
b11100111 %
#20
1"
b11100110 %
b11001111100110 -
#21
0"
b1000011 %
#22
1"
b100001111100110 -
b10110100101 =
#23
0"
b11101000 %
#24
1"
b100001111101000 -
#25
0"
b110011 %
#26
1"
b11001111101000 -
b10110100110 =
#27
0"
b11100111 %
#28
1"
b11100110 %
b11001111100110 -
#29
0"
b1000011 %
#30
1"
b100001111100110 -
b10110100111 =
#31
0"
b11101000 %
#32
1"
b100001111101000 -
#33
0"
b110011 %
#34
1"
b11001111101000 -
b10110101000 =
#35
0"
b11100111 %
#36
1"
b11100110 %
b11001111100110 -
#37
0"
b1000011 %
#38
1"
b100001111100110 -
b10110101001 =
#39
0"
b11101000 %
#40
1"
b100001111101000 -
#41
0"
b1001100 %
#42
1"
b100110011101000 -
b10110101010 =
#43
0"
b1101001 %
#44
1"
b100110001101001 -
#45
0"
b1100011 %
#46
1"
b110001101101001 -
b10110101011 =
#47
0"
b11001110 %
#48
1"
b11001100 %
b110001111001100 -
#49
0"
b11001011 %
#50
1"
b1100101111001100 -
b10110101100 =
#51
0"
b11011 %
#52
1"
b11001 %
b1100101100011001 -
#53
0"
b10111011 %
#54
1"
b1011101100011001 -
b10110101101 =
#55
0"
b111111 %
#56
1"
b110111 %
b1011101100110111 -
#57
0"
b11001011 %
#58
1"
b1100101100110111 -
b10110101110 =
#59
0"
b111011 %
#60
1"
b111001 %
b1100101100111001 -
#61
0"
b10111011 %
#62
1"
b1011101100111001 -
b10110101111 =
#63
0"
b111111 %
#64
1"
b110111 %
b1011101100110111 -
#65
0"
b11001011 %
#66
1"
b1100101100110111 -
b10110110000 =
#67
0"
b111011 %
#68
1"
b111001 %
b1100101100111001 -
#69
0"
b10111011 %
#70
1"
b1011101100111001 -
b10110110001 =
#71
0"
b111111 %
#72
1"
b110111 %
b1011101100110111 -
#73
0"
b11001011 %
#74
1"
b1100101100110111 -
b10110110010 =
#75
0"
b111011 %
#76
1"
b111001 %
b1100101100111001 -
#77
0"
b10111011 %
#78
1"
b1011101100111001 -
b10110110011 =
#79
0"
b111111 %
#80
1"
b110111 %
b1011101100110111 -
#81
0"
b11001011 %
#82
1"
b1100101100110111 -
b10110110100 =
#83
0"
b111011 %
#84
1"
b111001 %
b1100101100111001 -
#85
0"
b10111011 %
#86
1"
b1011101100111001 -
b10110110101 =
#87
0"
b111111 %
#88
1"
b110111 %
b1011101100110111 -
#89
0"
b11001011 %
#90
1"
b1100101100110111 -
b10110110110 =
#91
0"
b111011 %
#92
1"
b111001 %
b1100101100111001 -
#93
0"
b10111011 %
#94
1"
b1011101100111001 -
b10110110111 =
#95
0"
b111111 %
#96
1"
b110111 %
b1011101100110111 -
#97
0"
b11001011 %
#98
1"
b1100101100110111 -
b10110111000 =
#99
0"
b111011 %
#100
1"
b111001 %
b1100101100111001 -
#101
0"
b10111011 %
#102
1"
b1011101100111001 -
b10110111001 =
#103
0"
b111111 %
#104
1"
b110111 %
b1011101100110111 -
#105
0"
b11001011 %
#106
1"
b1100101100110111 -
b10110111010 =
#107
0"
b111011 %
#108
1"
b111001 %
b1100101100111001 -
#109
0"
b10111011 %
#110
1"
b1011101100111001 -
b10110111011 =
#111
0"
b111111 %
#112
1"
b110111 %
b1011101100110111 -
#113
0"
b11001011 %
#114
1"
b1100101100110111 -
b10110111100 =
#115
0"
b111011 %
#116
1"
b111001 %
b1100101100111001 -
#117
0"
b10111011 %
#118
1"
b1011101100111001 -
b10110111101 =
#119
0"
b111111 %
#120
1"
b110111 %
b1011101100110111 -
#121
0"
b11001011 %
#122
1"
b1100101100110111 -
b10110111110 =
#123
0"
b111011 %
#124
1"
b111001 %
b1100101100111001 -
#125
0"
b10111011 %
#126
1"
b1011101100111001 -
b10110111111 =
#127
0"
b111111 %
#128
1"
b110111 %
b1011101100110111 -
#129
0"
b11001011 %
#130
1"
b1100101100110111 -
b10111000000 =
#131
0"
b111011 %
#132
1"
b111001 %
b1100101100111001 -
#133
0"
b10111011 %
#134
1"
b1011101100111001 -
b10111000001 =
#135
0"
b111111 %
#136
1"
b110111 %
b1011101100110111 -
#137
0"
b11001011 %
#138
1"
b1100101100110111 -
b10111000010 =
#139
0"
b111011 %
#140
1"
b111001 %
b1100101100111001 -
#141
0"
b10111011 %
#142
1"
b1011101100111001 -
b10111000011 =
#143
0"
b111111 %
#144
1"
b110111 %
b1011101100110111 -
#145
0"
b11001011 %
#146
1"
b1100101100110111 -
b10111000100 =
#147
0"
b111011 %
#148
1"
b111001 %
b1100101100111001 -
#149
0"
b10111011 %
#150
1"
b1011101100111001 -
b10111000101 =
#151
0"
b111111 %
#152
1"
b110111 %
b1011101100110111 -
#153
0"
b11001011 %
#154
1"
b1100101100110111 -
b10111000110 =
#155
0"
b111011 %
#156
1"
b111001 %
b1100101100111001 -
#157
0"
b10111011 %
#158
1"
b1011101100111001 -
b10111000111 =
#159
0"
b111111 %
#160
1"
b110111 %
b1011101100110111 -
#161
0"
b11001011 %
#162
1"
b1100101100110111 -
b10111001000 =
#163
0"
b111011 %
#164
1"
b111001 %
b1100101100111001 -
#165
0"
b10111011 %
#166
1"
b1011101100111001 -
b10111001001 =
#167
0"
b111111 %
#168
1"
b110111 %
b1011101100110111 -
#169
0"
b11001011 %
#170
1"
b1100101100110111 -
b10111001010 =
#171
0"
b111011 %
#172
1"
b111001 %
b1100101100111001 -
#173
0"
b10111011 %
#174
1"
b1011101100111001 -
b10111001011 =
#175
0"
b111111 %
#176
1"
b110111 %
b1011101100110111 -
#177
0"
b11001011 %
#178
1"
b1100101100110111 -
b10111001100 =
#179
0"
b111001 %
#180
1"
b1100101100111001 -
#181
0"
b10111011 %
#182
1"
b1011101100111001 -
b10111001101 =
#183
0"
b111111 %
#184
1"
b110111 %
b1011101100110111 -
#185
0"
b11001011 %
#186
1"
b1100101100110111 -
b10111001110 =
#187
0"
b111001 %
#188
1"
b1100101100111001 -
#189
0"
b10111011 %
#190
1"
b1011101100111001 -
b10111001111 =
#191
0"
b111111 %
#192
1"
b110111 %
b1011101100110111 -
#193
0"
b11001011 %
#194
1"
b1100101100110111 -
b10111010000 =
#195
0"
b111001 %
#196
1"
b1100101100111001 -
#197
0"
b10111011 %
#198
1"
b1011101100111001 -
b10111010001 =
#199
0"
b111111 %
#200
1"
b110111 %
b1011101100110111 -
#201
0"
b11001011 %
#202
1"
b1100101100110111 -
b10111010010 =
#203
0"
b111001 %
#204
1"
b1100101100111001 -
#205
0"
b10111011 %
#206
1"
b1011101100111001 -
b10111010011 =
#207
0"
b111111 %
#208
1"
b110111 %
b1011101100110111 -
#209
0"
b11001011 %
#210
1"
b1100101100110111 -
b10111010100 =
#211
0"
b111001 %
#212
1"
b1100101100111001 -
#213
0"
b10111011 %
#214
1"
b1011101100111001 -
b10111010101 =
#215
0"
b110111 %
#216
1"
b1011101100110111 -
#217
0"
b11001011 %
#218
1"
b1100101100110111 -
b10111010110 =
#219
0"
b111001 %
#220
1"
b1100101100111001 -
#221
0"
b10111011 %
#222
1"
b1011101100111001 -
b10111010111 =
#223
0"
b110111 %
#224
1"
b1011101100110111 -
#225
0"
b11001011 %
#226
1"
b1100101100110111 -
b10111011000 =
#227
0"
b111001 %
#228
1"
b1100101100111001 -
#229
0"
b10111011 %
#230
1"
b1011101100111001 -
b10111011001 =
#231
0"
b110111 %
#232
1"
b1011101100110111 -
#233
0"
b11001011 %
#234
1"
b1100101100110111 -
b10111011010 =
#235
0"
b111001 %
#236
1"
b1100101100111001 -
#237
0"
b10111011 %
#238
1"
b1011101100111001 -
b10111011011 =
#239
0"
b110111 %
#240
1"
b1011101100110111 -
#241
0"
b11001011 %
#242
1"
b1100101100110111 -
b10111011100 =
#243
0"
b111001 %
#244
1"
b1100101100111001 -
#245
0"
b10111011 %
#246
1"
b1011101100111001 -
b10111011101 =
#247
0"
b110111 %
#248
1"
b1011101100110111 -
#249
0"
b11001011 %
#250
1"
b1100101100110111 -
b10111011110 =
#251
0"
b111001 %
#252
1"
b1100101100111001 -
#253
0"
b10111011 %
#254
1"
b1011101100111001 -
b10111011111 =
#255
0"
b110111 %
#256
1"
b1011101100110111 -
#257
0"
b11001011 %
#258
1"
b1100101100110111 -
b10111100000 =
#259
0"
b111001 %
#260
1"
b1100101100111001 -
#261
0"
b10111011 %
#262
1"
b1011101100111001 -
b10111100001 =
#263
0"
b110111 %
#264
1"
b1011101100110111 -
#265
0"
b11001011 %
#266
1"
b1100101100110111 -
b10111100010 =
#267
0"
b111001 %
#268
1"
b1100101100111001 -
#269
0"
b10111011 %
#270
1"
b1011101100111001 -
b10111100011 =
#271
0"
b110111 %
#272
1"
b1011101100110111 -
#273
0"
b11001011 %
#274
1"
b1100101100110111 -
b10111100100 =
#275
0"
b111001 %
#276
1"
b1100101100111001 -
#277
0"
b10111011 %
#278
1"
b1011101100111001 -
b10111100101 =
#279
0"
b110111 %
#280
1"
b1011101100110111 -
#281
0"
b11001011 %
#282
1"
b1100101100110111 -
b10111100110 =
#283
0"
b111001 %
#284
1"
b1100101100111001 -
#285
0"
b10111011 %
#286
1"
b1011101100111001 -
b10111100111 =
#287
0"
b110111 %
#288
1"
b1011101100110111 -
#289
0"
b11001011 %
#290
1"
b1100101100110111 -
b10111101000 =
#291
0"
b111001 %
#292
1"
b1100101100111001 -
#293
0"
b10111011 %
#294
1"
b1011101100111001 -
b10111101001 =
#295
0"
b110111 %
#296
1"
b1011101100110111 -
#297
0"
b11001011 %
#298
1"
b1100101100110111 -
b10111101010 =
#299
0"
b111001 %
#300
1"
b1100101100111001 -
#301
0"
b10111011 %
#302
1"
b1011101100111001 -
b10111101011 =
#303
0"
b111111 %
#304
1"
b110111 %
b1011101100110111 -
#305
0"
b11001011 %
#306
1"
b1100101100110111 -
b10111101100 =
#307
0"
b111001 %
#308
1"
b1100101100111001 -
#309
0"
b10111011 %
#310
1"
b1011101100111001 -
b10111101101 =
#311
0"
b111111 %
#312
1"
b110111 %
b1011101100110111 -
#313
0"
b11001011 %
#314
1"
b1100101100110111 -
b10111101110 =
#315
0"
b111001 %
#316
1"
b1100101100111001 -
#317
0"
b10111011 %
#318
1"
b1011101100111001 -
b10111101111 =
#319
0"
b111111 %
#320
1"
b110111 %
b1011101100110111 -
#321
0"
b11001011 %
#322
1"
b1100101100110111 -
b10111110000 =
#323
0"
b111001 %
#324
1"
b1100101100111001 -
#325
0"
b10111011 %
#326
1"
b1011101100111001 -
b10111110001 =
#327
0"
b111111 %
#328
1"
b110111 %
b1011101100110111 -
#329
0"
b11001011 %
#330
1"
b1100101100110111 -
b10111110010 =
#331
0"
b111001 %
#332
1"
b1100101100111001 -
#333
0"
b10111011 %
#334
1"
b1011101100111001 -
b10111110011 =
#335
0"
b111111 %
#336
1"
b110111 %
b1011101100110111 -
#337
0"
b11001011 %
#338
1"
b1100101100110111 -
b10111110100 =
#339
0"
b111001 %
#340
1"
b1100101100111001 -
#341
0"
b10111011 %
#342
1"
b1011101100111001 -
b10111110101 =
#343
0"
b110111 %
#344
1"
b1011101100110111 -
#345
0"
b11001011 %
#346
1"
b1100101100110111 -
b10111110110 =
#347
0"
b111001 %
#348
1"
b1100101100111001 -
#349
0"
b10111011 %
#350
1"
b1011101100111001 -
b10111110111 =
#351
0"
b110111 %
#352
1"
b1011101100110111 -
#353
0"
b11001011 %
#354
1"
b1100101100110111 -
b10111111000 =
#355
0"
b111001 %
#356
1"
b1100101100111001 -
#357
0"
b10111011 %
#358
1"
b1011101100111001 -
b10111111001 =
#359
0"
b110111 %
#360
1"
b1011101100110111 -
#361
0"
b11001011 %
#362
1"
b1100101100110111 -
b10111111010 =
#363
0"
b111001 %
#364
1"
b1100101100111001 -
#365
0"
b10111011 %
#366
1"
b1011101100111001 -
b10111111011 =
#367
0"
b110111 %
#368
1"
b1011101100110111 -
#369
0"
b11001011 %
#370
1"
b1100101100110111 -
b10111111100 =
#371
0"
b111001 %
#372
1"
b1100101100111001 -
#373
0"
b10100011 %
#374
1"
b1010001100111001 -
b10111111101 =
#375
0"
b11110 %
#376
1"
b10100 %
b1010001100010100 -
#377
0"
b11011010 %
#378
1"
b1101101000010100 -
b10111111110 =
#379
0"
b10111011 %
#380
1"
b1101101010111011 -
#381
0"
b1011011 %
#382
1"
b1011010 %
b101101010111011 -
b10111111111 =
#383
0"
b10001011 %
#384
1"
b101101010001011 -
#385
0"
b11011010 %
#386
1"
b1101101010001011 -
b11000000000 =
#387
0"
b10011011 %
#388
1"
b1101101010011011 -
#389
0"
b1011010 %
#390
1"
b101101010011011 -
b11000000001 =
#391
0"
b10001011 %
#392
1"
b101101010001011 -
#393
0"
b11011010 %
#394
1"
b1101101010001011 -
b11000000010 =
#395
0"
b10011011 %
#396
1"
b1101101010011011 -
#397
0"
b1011010 %
#398
1"
b101101010011011 -
b11000000011 =
#399
0"
b10001011 %
#400
1"
b101101010001011 -
#401
0"
b11011010 %
#402
1"
b1101101010001011 -
b11000000100 =
#403
0"
b10011011 %
#404
1"
b1101101010011011 -
#405
0"
b1011010 %
#406
1"
b101101010011011 -
b11000000101 =
#407
0"
b10001011 %
#408
1"
b101101010001011 -
#409
0"
b11011010 %
#410
1"
b1101101010001011 -
b11000000110 =
#411
0"
b10011011 %
#412
1"
b1101101010011011 -
#413
0"
b1011010 %
#414
1"
b101101010011011 -
b11000000111 =
#415
0"
b10001011 %
#416
1"
b101101010001011 -
#417
0"
b11011010 %
#418
1"
b1101101010001011 -
b11000001000 =
#419
0"
b10011011 %
#420
1"
b1101101010011011 -
#421
0"
b1011010 %
#422
1"
b101101010011011 -
b11000001001 =
#423
0"
b10001011 %
#424
1"
b101101010001011 -
#425
0"
b11011010 %
#426
1"
b1101101010001011 -
b11000001010 =
#427
0"
b10011011 %
#428
1"
b1101101010011011 -
#429
0"
b1011010 %
#430
1"
b101101010011011 -
b11000001011 =
#431
0"
b10001011 %
#432
1"
b101101010001011 -
#433
0"
b11011010 %
#434
1"
b1101101010001011 -
b11000001100 =
#435
0"
b10011011 %
#436
1"
b1101101010011011 -
#437
0"
b1011010 %
#438
1"
b101101010011011 -
b11000001101 =
#439
0"
b10001011 %
#440
1"
b101101010001011 -
#441
0"
b11011010 %
#442
1"
b1101101010001011 -
b11000001110 =
#443
0"
b10011011 %
#444
1"
b1101101010011011 -
#445
0"
b1011011 %
#446
1"
b1011010 %
b101101010011011 -
b11000001111 =
#447
0"
b10001011 %
#448
1"
b101101010001011 -
#449
0"
b11011010 %
#450
1"
b1101101010001011 -
b11000010000 =
#451
0"
b10011011 %
#452
1"
b1101101010011011 -
#453
0"
b1011011 %
#454
1"
b1011010 %
b101101010011011 -
b11000010001 =
#455
0"
b10001011 %
#456
1"
b101101010001011 -
#457
0"
b11011010 %
#458
1"
b1101101010001011 -
b11000010010 =
#459
0"
b10011011 %
#460
1"
b1101101010011011 -
#461
0"
b1011010 %
#462
1"
b101101010011011 -
b11000010011 =
#463
0"
b10001011 %
#464
1"
b101101010001011 -
#465
0"
b11011010 %
#466
1"
b1101101010001011 -
b11000010100 =
#467
0"
b10011011 %
#468
1"
b1101101010011011 -
#469
0"
b1011011 %
#470
1"
b1011010 %
b101101010011011 -
b11000010101 =
#471
0"
b10001011 %
#472
1"
b101101010001011 -
#473
0"
b11011010 %
#474
1"
b1101101010001011 -
b11000010110 =
#475
0"
b10011011 %
#476
1"
b1101101010011011 -
#477
0"
b1011011 %
#478
1"
b1011010 %
b101101010011011 -
b11000010111 =
#479
0"
b10001011 %
#480
1"
b101101010001011 -
#481
0"
b11011010 %
#482
1"
b1101101010001011 -
b11000011000 =
#483
0"
b10011011 %
#484
1"
b1101101010011011 -
#485
0"
b1011011 %
#486
1"
b1011010 %
b101101010011011 -
b11000011001 =
#487
0"
b10001011 %
#488
1"
b101101010001011 -
#489
0"
b11011010 %
#490
1"
b1101101010001011 -
b11000011010 =
#491
0"
b10011011 %
#492
1"
b1101101010011011 -
#493
0"
b1011011 %
#494
1"
b1011010 %
b101101010011011 -
b11000011011 =
#495
0"
b10001011 %
#496
1"
b101101010001011 -
#497
0"
b11011010 %
#498
1"
b1101101010001011 -
b11000011100 =
#499
0"
b10011011 %
#500
1"
b1101101010011011 -
#501
0"
b1011011 %
#502
1"
b1011010 %
b101101010011011 -
b11000011101 =
#503
0"
b10001011 %
#504
1"
b101101010001011 -
#505
0"
b11011010 %
#506
1"
b1101101010001011 -
b11000011110 =
#507
0"
b10011011 %
#508
1"
b1101101010011011 -
#509
0"
b1011011 %
#510
1"
b1011010 %
b101101010011011 -
b11000011111 =
#511
0"
b10001011 %
#512
1"
b101101010001011 -
#513
0"
b11011010 %
#514
1"
b1101101010001011 -
b11000100000 =
#515
0"
b10011011 %
#516
1"
b1101101010011011 -
#517
0"
b1011011 %
#518
1"
b1011010 %
b101101010011011 -
b11000100001 =
#519
0"
b10001011 %
#520
1"
b101101010001011 -
#521
0"
b11011010 %
#522
1"
b1101101010001011 -
b11000100010 =
#523
0"
b10011011 %
#524
1"
b1101101010011011 -
#525
0"
b1011011 %
#526
1"
b1011010 %
b101101010011011 -
b11000100011 =
#527
0"
b10001011 %
#528
1"
b101101010001011 -
#529
0"
b11011010 %
#530
1"
b1101101010001011 -
b11000100100 =
#531
0"
b10011011 %
#532
1"
b1101101010011011 -
#533
0"
b1011011 %
#534
1"
b1011010 %
b101101010011011 -
b11000100101 =
#535
0"
b10001011 %
#536
1"
b101101010001011 -
#537
0"
b11011010 %
#538
1"
b1101101010001011 -
b11000100110 =
#539
0"
b10011011 %
#540
1"
b1101101010011011 -
#541
0"
b1011011 %
#542
1"
b1011010 %
b101101010011011 -
b11000100111 =
#543
0"
b10001011 %
#544
1"
b101101010001011 -
#545
0"
b11011010 %
#546
1"
b1101101010001011 -
b11000101000 =
#547
0"
b10011011 %
#548
1"
b1101101010011011 -
#549
0"
b1011011 %
#550
1"
b1011010 %
b101101010011011 -
b11000101001 =
#551
0"
b10001011 %
#552
1"
b101101010001011 -
#553
0"
b11011010 %
#554
1"
b1101101010001011 -
b11000101010 =
#555
0"
b10011011 %
#556
1"
b1101101010011011 -
#557
0"
b1011011 %
#558
1"
b1011010 %
b101101010011011 -
b11000101011 =
#559
0"
b10001011 %
#560
1"
b101101010001011 -
#561
0"
b11011010 %
#562
1"
b1101101010001011 -
b11000101100 =
#563
0"
b10011011 %
#564
1"
b1101101010011011 -
#565
0"
b1011011 %
#566
1"
b1011010 %
b101101010011011 -
b11000101101 =
#567
0"
b10001011 %
#568
1"
b101101010001011 -
#569
0"
b11011010 %
#570
1"
b1101101010001011 -
b11000101110 =
#571
0"
b10011011 %
#572
1"
b1101101010011011 -
#573
0"
b1011011 %
#574
1"
b1011010 %
b101101010011011 -
b11000101111 =
#575
0"
b10001011 %
#576
1"
b101101010001011 -
#577
0"
b11011010 %
#578
1"
b1101101010001011 -
b11000110000 =
#579
0"
b10011011 %
#580
1"
b1101101010011011 -
#581
0"
b1011011 %
#582
1"
b1011010 %
b101101010011011 -
b11000110001 =
#583
0"
b10001011 %
#584
1"
b101101010001011 -
#585
0"
b11011010 %
#586
1"
b1101101010001011 -
b11000110010 =
#587
0"
b10011011 %
#588
1"
b1101101010011011 -
#589
0"
b1011011 %
#590
1"
b1011010 %
b101101010011011 -
b11000110011 =
#591
0"
b10001011 %
#592
1"
b101101010001011 -
#593
0"
b11011010 %
#594
1"
b1101101010001011 -
b11000110100 =
#595
0"
b10011011 %
#596
1"
b1101101010011011 -
#597
0"
b1011011 %
#598
1"
b1011010 %
b101101010011011 -
b11000110101 =
#599
0"
b10001011 %
#600
1"
b101101010001011 -
#601
0"
b11011010 %
#602
1"
b1101101010001011 -
b11000110110 =
#603
0"
b10011011 %
#604
1"
b1101101010011011 -
#605
0"
b1011011 %
#606
1"
b1011010 %
b101101010011011 -
b11000110111 =
#607
0"
b10001011 %
#608
1"
b101101010001011 -
#609
0"
b11011010 %
#610
1"
b1101101010001011 -
b11000111000 =
#611
0"
b10011011 %
#612
1"
b1101101010011011 -
#613
0"
b1011011 %
#614
1"
b1011010 %
b101101010011011 -
b11000111001 =
#615
0"
b10001011 %
#616
1"
b101101010001011 -
#617
0"
b11011010 %
#618
1"
b1101101010001011 -
b11000111010 =
#619
0"
b10011011 %
#620
1"
b1101101010011011 -
#621
0"
b1011011 %
#622
1"
b1011010 %
b101101010011011 -
b11000111011 =
#623
0"
b10001011 %
#624
1"
b101101010001011 -
#625
0"
b11011010 %
#626
1"
b1101101010001011 -
b11000111100 =
#627
0"
b10011011 %
#628
1"
b1101101010011011 -
#629
0"
b1011011 %
#630
1"
b1011010 %
b101101010011011 -
b11000111101 =
#631
0"
b10001011 %
#632
1"
b101101010001011 -
#633
0"
b11011010 %
#634
1"
b1101101010001011 -
b11000111110 =
#635
0"
b10011011 %
#636
1"
b1101101010011011 -
#637
0"
b1011011 %
#638
1"
b1011010 %
b101101010011011 -
b11000111111 =
#639
0"
b10001011 %
#640
1"
b101101010001011 -
#641
0"
b11011010 %
#642
1"
b1101101010001011 -
b11001000000 =
#643
0"
b10011011 %
#644
1"
b1101101010011011 -
#645
0"
b1011011 %
#646
1"
b1011010 %
b101101010011011 -
b11001000001 =
#647
0"
b10001011 %
#648
1"
b101101010001011 -
#649
0"
b11011010 %
#650
1"
b1101101010001011 -
b11001000010 =
#651
0"
b10011011 %
#652
1"
b1101101010011011 -
#653
0"
b1011011 %
#654
1"
b1011010 %
b101101010011011 -
b11001000011 =
#655
0"
b10001011 %
#656
1"
b101101010001011 -
#657
0"
b11011010 %
#658
1"
b1101101010001011 -
b11001000100 =
#659
0"
b10011011 %
#660
1"
b1101101010011011 -
#661
0"
b1011011 %
#662
1"
b1011010 %
b101101010011011 -
b11001000101 =
#663
0"
b10001011 %
#664
1"
b101101010001011 -
#665
0"
b11011010 %
#666
1"
b1101101010001011 -
b11001000110 =
#667
0"
b10011011 %
#668
1"
b1101101010011011 -
#669
0"
b1011011 %
#670
1"
b1011010 %
b101101010011011 -
b11001000111 =
#671
0"
b10001011 %
#672
1"
b101101010001011 -
#673
0"
b11011010 %
#674
1"
b1101101010001011 -
b11001001000 =
#675
0"
b10011011 %
#676
1"
b1101101010011011 -
#677
0"
b1011011 %
#678
1"
b1011010 %
b101101010011011 -
b11001001001 =
#679
0"
b10001011 %
#680
1"
b101101010001011 -
#681
0"
b11011010 %
#682
1"
b1101101010001011 -
b11001001010 =
#683
0"
b10011011 %
#684
1"
b1101101010011011 -
#685
0"
b1011011 %
#686
1"
b1011010 %
b101101010011011 -
b11001001011 =
#687
0"
b10001011 %
#688
1"
b101101010001011 -
#689
0"
b11011010 %
#690
1"
b1101101010001011 -
b11001001100 =
#691
0"
b10011011 %
#692
1"
b1101101010011011 -
#693
0"
b1011011 %
#694
1"
b1011010 %
b101101010011011 -
b11001001101 =
#695
0"
b10001011 %
#696
1"
b101101010001011 -
#697
0"
b11000010 %
#698
1"
b1100001010001011 -
b11001001110 =
#699
0"
b11010 %
#700
1"
b11000 %
b1100001000011000 -
#701
0"
b10001001 %
#702
1"
b1000100100011000 -
b11001001111 =
#703
0"
b1010001 %
#704
1"
b1000100101010001 -
#705
0"
b1110001 %
#706
1"
b111000101010001 -
b11001010000 =
#707
0"
b1001111 %
#708
1"
b1001110 %
b111000101001110 -
#709
0"
b11011001 %
#710
1"
b1101100101001110 -
b11001010001 =
#711
0"
b1111011 %
#712
1"
b1101100101111011 -
#713
0"
b1101001 %
#714
1"
b110100101111011 -
b11001010010 =
#715
0"
b1101101 %
#716
1"
b110100101101101 -
#717
0"
b11011001 %
#718
1"
b1101100101101101 -
b11001010011 =
#719
0"
b1111011 %
#720
1"
b1101100101111011 -
#721
0"
b1101001 %
#722
1"
b110100101111011 -
b11001010100 =
#723
0"
b1101101 %
#724
1"
b110100101101101 -
#725
0"
b11011001 %
#726
1"
b1101100101101101 -
b11001010101 =
#727
0"
b1111011 %
#728
1"
b1101100101111011 -
#729
0"
b1101001 %
#730
1"
b110100101111011 -
b11001010110 =
#731
0"
b1101101 %
#732
1"
b110100101101101 -
#733
0"
b11011001 %
#734
1"
b1101100101101101 -
b11001010111 =
#735
0"
b1111011 %
#736
1"
b1101100101111011 -
#737
0"
b1101001 %
#738
1"
b110100101111011 -
b11001011000 =
#739
0"
b1101101 %
#740
1"
b110100101101101 -
#741
0"
b11011001 %
#742
1"
b1101100101101101 -
b11001011001 =
#743
0"
b1111011 %
#744
1"
b1101100101111011 -
#745
0"
b1101001 %
#746
1"
b110100101111011 -
b11001011010 =
#747
0"
b1101101 %
#748
1"
b110100101101101 -
#749
0"
b11011001 %
#750
1"
b1101100101101101 -
b11001011011 =
#751
0"
b1111011 %
#752
1"
b1101100101111011 -
#753
0"
b1101001 %
#754
1"
b110100101111011 -
b11001011100 =
#755
0"
b1101101 %
#756
1"
b110100101101101 -
#757
0"
b11011001 %
#758
1"
b1101100101101101 -
b11001011101 =
#759
0"
b1111011 %
#760
1"
b1101100101111011 -
#761
0"
b1101001 %
#762
1"
b110100101111011 -
b11001011110 =
#763
0"
b1101101 %
#764
1"
b110100101101101 -
#765
0"
b11011001 %
#766
1"
b1101100101101101 -
b11001011111 =
#767
0"
b1111011 %
#768
1"
b1101100101111011 -
#769
0"
b1101001 %
#770
1"
b110100101111011 -
b11001100000 =
#771
0"
b1101101 %
#772
1"
b110100101101101 -
#773
0"
b11011001 %
#774
1"
b1101100101101101 -
b11001100001 =
#775
0"
b1111011 %
#776
1"
b1101100101111011 -
#777
0"
b1101001 %
#778
1"
b110100101111011 -
b11001100010 =
#779
0"
b1101101 %
#780
1"
b110100101101101 -
#781
0"
b11011001 %
#782
1"
b1101100101101101 -
b11001100011 =
#783
0"
b1111011 %
#784
1"
b1101100101111011 -
#785
0"
b1101001 %
#786
1"
b110100101111011 -
b11001100100 =
#787
0"
b1101101 %
#788
1"
b110100101101101 -
#789
0"
b11011001 %
#790
1"
b1101100101101101 -
b11001100101 =
#791
0"
b1111011 %
#792
1"
b1101100101111011 -
#793
0"
b1101001 %
#794
1"
b110100101111011 -
b11001100110 =
#795
0"
b1101101 %
#796
1"
b110100101101101 -
#797
0"
b11011001 %
#798
1"
b1101100101101101 -
b11001100111 =
#799
0"
b1111011 %
#800
1"
b1101100101111011 -
#801
0"
b1101001 %
#802
1"
b110100101111011 -
b11001101000 =
#803
0"
b1101101 %
#804
1"
b110100101101101 -
#805
0"
b11011001 %
#806
1"
b1101100101101101 -
b11001101001 =
#807
0"
b1111011 %
#808
1"
b1101100101111011 -
#809
0"
b1101001 %
#810
1"
b110100101111011 -
b11001101010 =
#811
0"
b1101101 %
#812
1"
b110100101101101 -
#813
0"
b11011001 %
#814
1"
b1101100101101101 -
b11001101011 =
#815
0"
b1111011 %
#816
1"
b1101100101111011 -
#817
0"
b1101001 %
#818
1"
b110100101111011 -
b11001101100 =
#819
0"
b1101101 %
#820
1"
b110100101101101 -
#821
0"
b11011001 %
#822
1"
b1101100101101101 -
b11001101101 =
#823
0"
b1111011 %
#824
1"
b1101100101111011 -
#825
0"
b1101001 %
#826
1"
b110100101111011 -
b11001101110 =
#827
0"
b1101101 %
#828
1"
b110100101101101 -
#829
0"
b11011001 %
#830
1"
b1101100101101101 -
b11001101111 =
#831
0"
b1111011 %
#832
1"
b1101100101111011 -
#833
0"
b1101001 %
#834
1"
b110100101111011 -
b11001110000 =
#835
0"
b1101101 %
#836
1"
b110100101101101 -
#837
0"
b11011001 %
#838
1"
b1101100101101101 -
b11001110001 =
#839
0"
b1111011 %
#840
1"
b1101100101111011 -
#841
0"
b1101001 %
#842
1"
b110100101111011 -
b11001110010 =
#843
0"
b1101101 %
#844
1"
b110100101101101 -
#845
0"
b11011001 %
#846
1"
b1101100101101101 -
b11001110011 =
#847
0"
b1111011 %
#848
1"
b1101100101111011 -
#849
0"
b1101001 %
#850
1"
b110100101111011 -
b11001110100 =
#851
0"
b1101101 %
#852
1"
b110100101101101 -
#853
0"
b11011001 %
#854
1"
b1101100101101101 -
b11001110101 =
#855
0"
b1111011 %
#856
1"
b1101100101111011 -
#857
0"
b1101001 %
#858
1"
b110100101111011 -
b11001110110 =
#859
0"
b1101101 %
#860
1"
b110100101101101 -
#861
0"
b11011001 %
#862
1"
b1101100101101101 -
b11001110111 =
#863
0"
b1111011 %
#864
1"
b1101100101111011 -
#865
0"
b1101001 %
#866
1"
b110100101111011 -
b11001111000 =
#867
0"
b1101101 %
#868
1"
b110100101101101 -
#869
0"
b11011001 %
